…
#### a) Success by Category
#Using Achievement Ratio to identify the successful projects 

```r
kick_starter<- read_csv("./kickstarter_projects_1.csv")

#kick_starter <- readLines("kick_starter.txt", sep="/")
#kick_starter <- readLines("kick_starter.txt", sep="/")
#kick_starter <- stri_enc_toutf8(kick_starter, is_unknown_8bit = T)

na.omit(kick_starter)
```

```
## # A tibble: 134,705 x 23
##    backers_count blurb        converted_pledg~ country created_at currency
##            <int> <chr>                   <int> <chr>   <chr>      <chr>   
##  1            80 I will be a~             3596 USA     07/01/12   USD     
##  2            80 Surrealisti~             3125 USA     24/03/12   USD     
##  3            82 1000 Artist~             4586 USA     05/03/12   USD     
##  4            31 P.M.A.F.T.W~             1036 USA     23/03/12   USD     
##  5            21 "The Sequel~             5217 USA     21/03/12   USD     
##  6           153 We need to ~            15445 USA     06/02/12   USD     
##  7            18 Source Mate~             2190 USA     08/03/12   USD     
##  8           148 A series of~            16115 USA     25/01/12   USD     
##  9           164 Become a pa~            12643 USA     25/03/12   USD     
## 10           479 Portrait ar~            62736 USA     09/03/12   USD     
## # ... with 134,695 more rows, and 17 more variables: deadline <chr>,
## #   goal <dbl>, id <int>, is_starrable <lgl>, launched_at <chr>,
## #   name <chr>, pledged <dbl>, slug <chr>, source_url <chr>,
## #   spotlight <lgl>, staff_pick <lgl>, state <chr>,
## #   state_changed_at <chr>, location_town <chr>, location_state <chr>,
## #   top_category <chr>, sub_category <chr>
```
…
